<?xml version="1.0" encoding="utf-8"?>
<!-- Generator: Adobe Illustrator 19.0.0, SVG Export Plug-In . SVG Version: 6.00 Build 0)  -->
<svg version="1.1" id="Layer_1" xmlns="http://www.w3.org/2000/svg" xmlns:xlink="http://www.w3.org/1999/xlink" x="0px" y="0px"
	 viewBox="-24 24.6 80 80" style="enable-background:new -24 24.6 80 80;" xml:space="preserve">
<style type="text/css">
	.st0{fill:#F1F1F1;enable-background:new    ;}
	.st1{fill:#FFFFFF;}
	.st2{fill:#FFFFFF;enable-background:new    ;}
	.st3{fill:none;}
</style>
<path class="st0" d="M-24,24.6h80v80h-80V24.6z"/>
<path class="st1" d="M45.3,93.4c-0.9-6.2-7.5-8.2-12.7-9.7c-2.7-0.8-6.2-1.4-8.4-3.3c-1.8-1.6-1.7-6.2-0.3-7.2
	c2.9-2.1,4.6-6.6,5.4-9.9c0.2-0.9-0.3-0.4,0.7-0.6c0.6-0.1,1.9-2,2.3-2.8c0.9-1.6,2.1-4.3,2.1-7.1c0-2-1-2.2-2.1-2
	C32,50.9,31.6,51,31.6,51c1.3-1.6,1.5-7.3-0.6-11.8c-3-6.6-11.1-8.1-15-8.1c-2.1,0-6.7,1.4-6.9,2.9c-3,0.2-6.8,2.3-8.1,5.2
	c-2.1,4.7-1.3,10-0.6,11.8c0,0-0.4-0.1-0.8-0.2c-1.2-0.2-2.1,0.1-2.1,2c0,2.8,1.2,5.5,2.1,7.1c0.5,0.8,1.7,2.7,2.3,2.8
	c1,0.2,0.5-0.4,0.7,0.6c0.8,3.3,2.7,8,5.4,9.9c1.5,1.8,1.5,5.6-0.3,7.2c-2.5,2.1-6.5,2.7-9.6,3.6c-5.2,1.6-11.7,4.3-11.7,10.8
	c0,2.2,3.5,10.3,5.6,10.3l49.1,0.2c2.1,0,4.4-8.3,4.4-10.5C45.6,94.9,45.5,94.4,45.3,93.4C44.8,90,45.5,94.4,45.3,93.4z"/>
<path class="st2" d="M-24,24.6"/>
<path class="st3" d="z"/>
</svg>
